%YAML 1.1
%TAG !u! tag:unity3d.com,2011:
--- !u!1045 &1
EditorBuildSettings:
  m_ObjectHideFlags: 0
  serializedVersion: 2
  m_Scenes:
  - enabled: 1
    path: Assets/Scenes/MainMenu.unity
    guid: 58ad9b0c7441c4548a38facacd3a1fc0
  - enabled: 1
    path: Assets/Scenes/TestLevel.unity
    guid: 921a479be0d1d9e45add40f91a61de17
  - enabled: 1
    path: Assets/Scenes/GameOver.unity
    guid: adae1cdbb43630b48a5cd43b5f782c7a
  m_configObjects: {}
