%YAML 1.1
%TAG !u! tag:unity3d.com,2011:
--- !u!1 &4157490418098477952
GameObject:
  m_ObjectHideFlags: 0
  m_CorrespondingSourceObject: {fileID: 0}
  m_PrefabInstance: {fileID: 0}
  m_PrefabAsset: {fileID: 0}
  serializedVersion: 6
  m_Component:
  - component: {fileID: 5756158907520963657}
  m_Layer: 0
  m_Name: FourDeskPrefab
  m_TagString: Untagged
  m_Icon: {fileID: 0}
  m_NavMeshLayer: 0
  m_StaticEditorFlags: 0
  m_IsActive: 1
--- !u!4 &5756158907520963657
Transform:
  m_ObjectHideFlags: 0
  m_CorrespondingSourceObject: {fileID: 0}
  m_PrefabInstance: {fileID: 0}
  m_PrefabAsset: {fileID: 0}
  m_GameObject: {fileID: 4157490418098477952}
  m_LocalRotation: {x: 0, y: 0, z: 0, w: 1}
  m_LocalPosition: {x: 0, y: 0, z: 0}
  m_LocalScale: {x: 1, y: 1, z: 1}
  m_Children:
  - {fileID: 6114788728718740540}
  - {fileID: 6114788729561043415}
  m_Father: {fileID: 0}
  m_RootOrder: 0
  m_LocalEulerAnglesHint: {x: 0, y: 0, z: 0}
--- !u!1001 &5672085625570521646
PrefabInstance:
  m_ObjectHideFlags: 0
  serializedVersion: 2
  m_Modification:
    m_TransformParent: {fileID: 5756158907520963657}
    m_Modifications:
    - target: {fileID: 1903716563118629880, guid: 7595b06f0b0632541863e64481ea86f0,
        type: 3}
      propertyPath: m_Name
      value: DualDeskPrefab (3)
      objectReference: {fileID: 0}
    - target: {fileID: 1903716563118629881, guid: 7595b06f0b0632541863e64481ea86f0,
        type: 3}
      propertyPath: m_LocalPosition.x
      value: -4.92
      objectReference: {fileID: 0}
    - target: {fileID: 1903716563118629881, guid: 7595b06f0b0632541863e64481ea86f0,
        type: 3}
      propertyPath: m_LocalPosition.y
      value: 0
      objectReference: {fileID: 0}
    - target: {fileID: 1903716563118629881, guid: 7595b06f0b0632541863e64481ea86f0,
        type: 3}
      propertyPath: m_LocalPosition.z
      value: -0.875
      objectReference: {fileID: 0}
    - target: {fileID: 1903716563118629881, guid: 7595b06f0b0632541863e64481ea86f0,
        type: 3}
      propertyPath: m_LocalRotation.x
      value: -0
      objectReference: {fileID: 0}
    - target: {fileID: 1903716563118629881, guid: 7595b06f0b0632541863e64481ea86f0,
        type: 3}
      propertyPath: m_LocalRotation.y
      value: 1
      objectReference: {fileID: 0}
    - target: {fileID: 1903716563118629881, guid: 7595b06f0b0632541863e64481ea86f0,
        type: 3}
      propertyPath: m_LocalRotation.z
      value: -0
      objectReference: {fileID: 0}
    - target: {fileID: 1903716563118629881, guid: 7595b06f0b0632541863e64481ea86f0,
        type: 3}
      propertyPath: m_LocalRotation.w
      value: 0
      objectReference: {fileID: 0}
    - target: {fileID: 1903716563118629881, guid: 7595b06f0b0632541863e64481ea86f0,
        type: 3}
      propertyPath: m_RootOrder
      value: 1
      objectReference: {fileID: 0}
    - target: {fileID: 1903716563118629881, guid: 7595b06f0b0632541863e64481ea86f0,
        type: 3}
      propertyPath: m_LocalEulerAnglesHint.x
      value: 0
      objectReference: {fileID: 0}
    - target: {fileID: 1903716563118629881, guid: 7595b06f0b0632541863e64481ea86f0,
        type: 3}
      propertyPath: m_LocalEulerAnglesHint.y
      value: 180
      objectReference: {fileID: 0}
    - target: {fileID: 1903716563118629881, guid: 7595b06f0b0632541863e64481ea86f0,
        type: 3}
      propertyPath: m_LocalEulerAnglesHint.z
      value: 0
      objectReference: {fileID: 0}
    m_RemovedComponents: []
  m_SourcePrefab: {fileID: 100100000, guid: 7595b06f0b0632541863e64481ea86f0, type: 3}
--- !u!4 &6114788729561043415 stripped
Transform:
  m_CorrespondingSourceObject: {fileID: 1903716563118629881, guid: 7595b06f0b0632541863e64481ea86f0,
    type: 3}
  m_PrefabInstance: {fileID: 5672085625570521646}
  m_PrefabAsset: {fileID: 0}
--- !u!1001 &5672085626286075845
PrefabInstance:
  m_ObjectHideFlags: 0
  serializedVersion: 2
  m_Modification:
    m_TransformParent: {fileID: 5756158907520963657}
    m_Modifications:
    - target: {fileID: 1903716563118629880, guid: 7595b06f0b0632541863e64481ea86f0,
        type: 3}
      propertyPath: m_Name
      value: DualDeskPrefab (2)
      objectReference: {fileID: 0}
    - target: {fileID: 1903716563118629881, guid: 7595b06f0b0632541863e64481ea86f0,
        type: 3}
      propertyPath: m_LocalPosition.x
      value: -2.96
      objectReference: {fileID: 0}
    - target: {fileID: 1903716563118629881, guid: 7595b06f0b0632541863e64481ea86f0,
        type: 3}
      propertyPath: m_LocalPosition.y
      value: 0
      objectReference: {fileID: 0}
    - target: {fileID: 1903716563118629881, guid: 7595b06f0b0632541863e64481ea86f0,
        type: 3}
      propertyPath: m_LocalPosition.z
      value: 0
      objectReference: {fileID: 0}
    - target: {fileID: 1903716563118629881, guid: 7595b06f0b0632541863e64481ea86f0,
        type: 3}
      propertyPath: m_LocalRotation.x
      value: -0
      objectReference: {fileID: 0}
    - target: {fileID: 1903716563118629881, guid: 7595b06f0b0632541863e64481ea86f0,
        type: 3}
      propertyPath: m_LocalRotation.y
      value: -0
      objectReference: {fileID: 0}
    - target: {fileID: 1903716563118629881, guid: 7595b06f0b0632541863e64481ea86f0,
        type: 3}
      propertyPath: m_LocalRotation.z
      value: -0
      objectReference: {fileID: 0}
    - target: {fileID: 1903716563118629881, guid: 7595b06f0b0632541863e64481ea86f0,
        type: 3}
      propertyPath: m_LocalRotation.w
      value: 1
      objectReference: {fileID: 0}
    - target: {fileID: 1903716563118629881, guid: 7595b06f0b0632541863e64481ea86f0,
        type: 3}
      propertyPath: m_RootOrder
      value: 0
      objectReference: {fileID: 0}
    - target: {fileID: 1903716563118629881, guid: 7595b06f0b0632541863e64481ea86f0,
        type: 3}
      propertyPath: m_LocalEulerAnglesHint.x
      value: 0
      objectReference: {fileID: 0}
    - target: {fileID: 1903716563118629881, guid: 7595b06f0b0632541863e64481ea86f0,
        type: 3}
      propertyPath: m_LocalEulerAnglesHint.y
      value: 0
      objectReference: {fileID: 0}
    - target: {fileID: 1903716563118629881, guid: 7595b06f0b0632541863e64481ea86f0,
        type: 3}
      propertyPath: m_LocalEulerAnglesHint.z
      value: 0
      objectReference: {fileID: 0}
    m_RemovedComponents: []
  m_SourcePrefab: {fileID: 100100000, guid: 7595b06f0b0632541863e64481ea86f0, type: 3}
--- !u!4 &6114788728718740540 stripped
Transform:
  m_CorrespondingSourceObject: {fileID: 1903716563118629881, guid: 7595b06f0b0632541863e64481ea86f0,
    type: 3}
  m_PrefabInstance: {fileID: 5672085626286075845}
  m_PrefabAsset: {fileID: 0}
